/private/var/tmp/XsanFS/XsanFS-457.8~6/client/vfs/obj/nomad10_7/x86_64/md_iodesc.o
/private/var/tmp/XsanFS/XsanFS-457.8~6/client/vfs/obj/nomad10_7/x86_64/ioerrinj.o
/private/var/tmp/XsanFS/XsanFS-457.8~6/client/vfs/obj/nomad10_7/x86_64/blocklet.o
/private/var/tmp/XsanFS/XsanFS-457.8~6/client/vfs/obj/nomad10_7/x86_64/sh_cvsubr.o
/private/var/tmp/XsanFS/XsanFS-457.8~6/client/vfs/obj/nomad10_7/x86_64/sh_vnops.o
/private/var/tmp/XsanFS/XsanFS-457.8~6/client/vfs/obj/nomad10_7/x86_64/md_vnops.o
/private/var/tmp/XsanFS/XsanFS-457.8~6/client/vfs/obj/nomad10_7/x86_64/md_vfsops.o
/private/var/tmp/XsanFS/XsanFS-457.8~6/client/vfs/obj/nomad10_7/x86_64/md_cvdir.o
/private/var/tmp/XsanFS/XsanFS-457.8~6/client/vfs/obj/nomad10_7/x86_64/md_subr++.o
/private/var/tmp/XsanFS/XsanFS-457.8~6/client/vfs/obj/nomad10_7/x86_64/md_subr2++.o
/private/var/tmp/XsanFS/XsanFS-457.8~6/client/vfs/obj/nomad10_7/x86_64/md_subr.o
/private/var/tmp/XsanFS/XsanFS-457.8~6/client/vfs/obj/nomad10_7/x86_64/md_rwproxy.o
/private/var/tmp/XsanFS/XsanFS-457.8~6/client/vfs/obj/nomad10_7/x86_64/md_rwbuf.o
/private/var/tmp/XsanFS/XsanFS-457.8~6/client/vfs/obj/nomad10_7/x86_64/md_rw.o
/private/var/tmp/XsanFS/XsanFS-457.8~6/client/vfs/obj/nomad10_7/x86_64/xattr.o
/private/var/tmp/XsanFS/XsanFS-457.8~6/client/vfs/obj/nomad10_7/x86_64/vnops.o
/private/var/tmp/XsanFS/XsanFS-457.8~6/client/vfs/obj/nomad10_7/x86_64/vfsops.o
/private/var/tmp/XsanFS/XsanFS-457.8~6/client/vfs/obj/nomad10_7/x86_64/extapi.o
/private/var/tmp/XsanFS/XsanFS-457.8~6/client/vfs/obj/nomad10_7/x86_64/debuglog.o
/private/var/tmp/XsanFS/XsanFS-457.8~6/client/vfs/obj/nomad10_7/x86_64/cvsock.o
/private/var/tmp/XsanFS/XsanFS-457.8~6/client/vfs/obj/nomad10_7/x86_64/cvpath.o
/private/var/tmp/XsanFS/XsanFS-457.8~6/client/vfs/obj/nomad10_7/x86_64/rwproxy.o
/private/var/tmp/XsanFS/XsanFS-457.8~6/client/vfs/obj/nomad10_7/x86_64/rw.o
/private/var/tmp/XsanFS/XsanFS-457.8~6/client/vfs/obj/nomad10_7/x86_64/iodesc.o
/private/var/tmp/XsanFS/XsanFS-457.8~6/client/vfs/obj/nomad10_7/x86_64/rtio.o
/private/var/tmp/XsanFS/XsanFS-457.8~6/client/vfs/obj/nomad10_7/x86_64/cvdisk.o
/private/var/tmp/XsanFS/XsanFS-457.8~6/client/vfs/obj/nomad10_7/x86_64/extent.o
/private/var/tmp/XsanFS/XsanFS-457.8~6/client/vfs/obj/nomad10_7/x86_64/cvsubr.o
/private/var/tmp/XsanFS/XsanFS-457.8~6/client/vfs/obj/nomad10_7/x86_64/quotas.o
/private/var/tmp/XsanFS/XsanFS-457.8~6/client/vfs/obj/nomad10_7/x86_64/cvnc.o
/private/var/tmp/XsanFS/XsanFS-457.8~6/client/vfs/obj/nomad10_7/x86_64/cvdir.o
/private/var/tmp/XsanFS/XsanFS-457.8~6/client/vfs/obj/nomad10_7/x86_64/md_debuglog.o
